Assignment-3-code.R
…
                                "3" = "(34,44]", "4" = "(44,100]")) %>%
  mutate(effort = e1 + e2 + e3 + e4 + e5 + e6,
         reward = e7 + e8 + e9 + e10 + e11 + e12 + e13 + e14 + e15 + e16,
         over = o1 + o2 + o3 + o4 + o5 + o6,
         friend = m1 + m2 + m3 + m4 + m5 + m6,
         esteem = e7 + e8 + e9 + e14,
         promotion = e10 + e13 + e15 + e16,
         security = e11 + e12,
         er.rate = effort/reward*10/6,
         ee.rate = effort/esteem*4/6,
         ep.rate = effort/promotion*4/6,
         es.rate = effort/security*2/6) %>%
  print(dat.new)

## # A tibble: 172 x 62
##    case.id gender   age mari.statu edu.level main.earn income occupation
##      <dbl>  <dbl> <dbl>      <dbl>     <dbl>     <dbl> <chr>       <dbl>
##  1       1      2    28          2         1         1 8               2
##  2       2      2    32          2         2         1 11              2
##  3       3      2    29          1         3         1 12              2
##  4       4      2    29          2         1         2 12              2
##  5       5      2    31          2         1         1 15              2
##  6       6      2    31          2         1         1 10              2
##  7       7      2    24          1         3         2 9               2
##  8       8      2    28          2         1         2 10              2
##  9       9      2    25          2         3         2 10              2
## 10      10      2    30          2         3         1 15              1
## # ... with 162 more rows, and 54 more variables: year.work <dbl>,
## #   hour.work <dbl>, b3x1 <dbl>, duty.hour.n <dbl>, b3x2 <dbl>,
## #   duty.hour.d <dbl>, b3x3 <dbl>, b4 <dbl>, main.posi <dbl>,
## #   sick.last.mth <dbl>, c2 <chr>, day.sickleave <chr>, self.evaluate <dbl>,
## #   job.satis <dbl>, e1 <dbl>, e2 <dbl>, e3 <dbl>, e4 <dbl>, e5 <dbl>,
## #   e6 <dbl>, e7 <dbl>, e8 <dbl>, e9 <dbl>, e10 <dbl>, e11 <dbl>, e12 <dbl>,
## #   e13 <dbl>, e14 <dbl>, e15 <dbl>, e16 <dbl>, o1 <dbl>, o2 <dbl>, o3 <dbl>,
## #   o4 <dbl>, o5 <dbl>, o6 <dbl>, m1 <dbl>, m2 <dbl>, m3 <dbl>, m4 <dbl>,
## #   m5 <dbl>, m6 <dbl>, age.group <fct>, effort <dbl>, reward <dbl>,
…
